%YAML 1.1
%TAG !u! tag:unity3d.com,2011:
--- !u!78 &1
TagManager:
  serializedVersion: 2
  tags: []
  layers:
  - Default
  - TransparentFX
  - Ignore Raycast
  - 
  - Water
  - UI
  - 
  - 
  - 
  - 
  - 
  - 
  - 
  - 
  - 
  - 
  - 
  - 
  - 
  - 
  - 
  - 
  - 
  - 
  - 
  - 
  - 
  - 
  - 
  - 
  - 
  - 
  m_SortingLayers:
  - name: Default
    uniqueID: 0
    locked: 0
  - name: Background
    uniqueID: 280487857
    locked: 0
  - name: Clouds
    uniqueID: 3115438075
    locked: 0
  - name: Mountains
    uniqueID: 309663057
    locked: 0
  - name: Trees
    uniqueID: 978837155
    locked: 0
  - name: Gates
    uniqueID: 3971343227
    locked: 0
  - name: Bird
    uniqueID: 3694654671
    locked: 0
  - name: Foreground
    uniqueID: 4120876243
    locked: 0
